1 1 0.7999447252905387
1 2 0.16986485868114454
1 3 0.3574758185389664
1 4 0.5373160918594877
1 5 0.46956850516941295
1 6 0.4755211900447158
1 7 0.41681041952101505
1 8 0.41176355601286496
1 9 0.7823876256966367
2 1 0.33225123602679285
2 2 0.8421872964104505
2 3 0.7888434917078858
2 4 0.48004145288710665
2 5 0.1725988251688363
2 6 0.05058025082536921
2 7 0.5544001194346494
2 8 0.22664860599570102
2 9 0.3152412362469371
3 1 0.8284350543897361
3 2 0.3070723297367842
3 3 0.931189572453913
3 4 0.6150824109749679
3 5 0.034913364019338866
3 6 0.5143423062852459
3 7 0.405229818552738
3 8 0.2798721476139536
3 9 0.45404567604450674
4 1 0.6046804030991542
4 2 0.8387178671366289
4 3 0.24896496508953492
4 4 0.21673931947352354
4 5 0.49947616471111755
4 6 0.4406735289556172
4 7 0.3273970858340741
4 8 0.30850051990118943
4 9 0.6017558271945528
5 1 0.4150246145389349
5 2 0.9007285674092277
5 3 0.07541684087539646
5 4 0.9007526178834269
5 5 0.056687363456640605
5 6 0.5430261016116658
5 7 0.850133148970475
5 8 0.6522991831181998
5 9 0.09886274284441565
6 1 0.43266865286088785
6 2 0.8449593872683695
6 3 0.5893035056820408
6 4 0.7482031109045107
6 5 0.8346264062024427
6 6 0.3024584058801162
6 7 0.7460892293218545
6 8 0.16100760531138825
6 9 0.01448229168307924
7 1 0.4366153806534341
7 2 0.01106902957905509
7 3 0.8149357817700381
7 4 0.46040467745996994
7 5 0.8464749806037672
7 6 0.1551770311454158
7 7 0.3656709774808615
7 8 0.5660565632723428
7 9 0.9953965072253815
8 1 0.5313563716646749
8 2 0.20795113378178742
8 3 0.444408173141819
8 4 0.1867930122123065
8 5 0.5507230049365659
8 6 0.40344244135040097
8 7 0.5190777305793254
8 8 0.9991355514285846
8 9 0.7784235288563524
9 1 0.10809225176526371
9 2 0.8703316305010376
9 3 0.021867330278554142
9 4 0.30756270238895267
9 5 0.7929422408273384
9 6 0.16971097529638812
9 7 0.711459683578123
9 8 0.3337045450028522
9 9 0.024992554534805644
